Elonmusk
…
#install.packages("textdata")
get_sentiments("afinn")

## # A tibble: 2,477 x 2
##    word       value
##    <chr>      <dbl>
##  1 abandon       -2
##  2 abandoned     -2
##  3 abandons      -2
##  4 abducted      -2
##  5 abduction     -2
##  6 abductions    -2
##  7 abhor         -3
##  8 abhorred      -3
##  9 abhorrent     -3
## 10 abhors        -3
## # ... with 2,467 more rows

get_sentiments("bing")

## # A tibble: 6,786 x 2
##    word        sentiment
##    <chr>       <chr>    
##  1 2-faces     negative 
##  2 abnormal    negative 
##  3 abolish     negative 
##  4 abominable  negative 
##  5 abominably  negative 
##  6 abominate   negative 
##  7 abomination negative 
##  8 abort       negative 
##  9 aborted     negative 
## 10 aborts      negative 
## # ... with 6,776 more rows

get_sentiments("nrc")

## # A tibble: 13,872 x 2
##    word        sentiment
##    <chr>       <chr>    
##  1 abacus      trust    
##  2 abandon     fear     
##  3 abandon     negative 
##  4 abandon     sadness  
##  5 abandoned   anger    
##  6 abandoned   fear     
##  7 abandoned   negative 
##  8 abandoned   sadness  
##  9 abandonment anger    
## 10 abandonment fear     
## # ... with 13,862 more rows
…
#count bigrams

bigram_counts <- tweets_bigram %>%
count(word1, word2, sort = TRUE)

tweets %>%
unnest_tokens(bigram, tweet, token = 'ngrams', n = 2) %>%
count(tweet_id, bigram) %>%
bind_tf_idf(bigram, tweet_id, n) %>%
group_by(tweet_id) %>%
arrange(tweet_id, desc(tf_idf))

## # A tibble: 676 x 6
## # Groups:   tweet_id [98]
##    tweet_id bigram                n     tf   idf tf_idf
##       <int> <chr>             <int>  <dbl> <dbl>  <dbl>
##  1        1 1 if                  1 0.0476  4.58  0.218
##  2        1 a bigger              1 0.0476  4.58  0.218
##  3        1 ai so                 1 0.0476  4.58  0.218
##  4        1 at 1                  1 0.0476  4.58  0.218
##  5        1 bigger risk           1 0.0476  4.58  0.218
##  6        1 cease to              1 0.0476  4.58  0.218
##  7        1 continue humanity     1 0.0476  4.58  0.218
##  8        1 humanity will         1 0.0476  4.58  0.218
##  9        1 id put               1 0.0476  4.58  0.218
## 10        1 if these              1 0.0476  4.58  0.218
## # ... with 666 more rows
…
trigram_counts <- tweets_trigram %>%
count(word1, word2, word3, sort = TRUE)

tweets %>%
unnest_tokens(trigram, tweet, token = 'ngrams', n = 3) %>%
count(tweet_id, trigram) %>%
bind_tf_idf(trigram, tweet_id, n) %>%
group_by(tweet_id) %>%
arrange(tweet_id, desc(tf_idf))

## # A tibble: 607 x 6
## # Groups:   tweet_id [98]
##    tweet_id trigram                    n    tf   idf tf_idf
##       <int> <chr>                  <int> <dbl> <dbl>  <dbl>
##  1        1 1 if these                 1  0.05  4.58  0.229
##  2        1 a bigger risk              1  0.05  4.58  0.229
##  3        1 ai so id                  1  0.05  4.58  0.229
##  4        1 at 1 if                    1  0.05  4.58  0.229
##  5        1 bigger risk than           1  0.05  4.58  0.229
##  6        1 cease to exist             1  0.05  4.58  0.229
##  7        1 continue humanity will     1  0.05  4.58  0.229
##  8        1 humanity will cease        1  0.05  4.58  0.229
##  9        1 id put it                 1  0.05  4.58  0.229
## 10        1 if these trends            1  0.05  4.58  0.229
## # ... with 597 more rows
…
